Detrending National Hate Crime Figures in the US, 1992-2017
…
edwards_processed <-  edwards %>% 
  arrange(date) %>% 
  group_by(date, year, quarter) %>% 
  summarise(hatedetrend=sum(hatedetrend), predictions=sum(predictions), residuals=sum(residuals), mean=sum(mean)) %>% 
  ungroup() %>% 
  mutate(quarter_str=paste(as.character(year), as.character(quarter),sep = "-")) %>% 
  mutate(quarter_date= yq(quarter_str))

edwards_processed

# A tibble: 104 x 9
    date  year quarter hatedetrend predictions residuals  mean quarter_str
   <dbl> <dbl>   <dbl>       <dbl>       <dbl>     <dbl> <dbl> <chr>      
 1   128  1992       1       1893.       1523.   100.    1792. 1992-1     
 2   129  1992       2       1986.       1790.   193.    1792. 1992-2     
 3   130  1992       3       1511.       1811.  -282.    1792. 1992-3     
 4   131  1992       4       1780.       1538.   -12.2   1792. 1992-4     
 5   132  1993       1       1833.       1757.    41.4   1792. 1993-1     
 6   133  1993       2       1792.       2024.    -0.247 1792. 1993-2     
 7   134  1993       3       1766.       2045.   -26.3   1792. 1993-3     
 8   135  1993       4       1777.       1773.   -14.9   1792. 1993-4     
 9   136  1994       1       1920.       1346.   127.    1792. 1994-1     
10   137  1994       2       1684.       1613.  -109.    1792. 1994-2     
# … with 94 more rows, and 1 more variable: quarter_date <date>
…
